[
  {
    "id": 1,
    "fullName": "Седых Наум Елизарович",
    "dateBirth": "Sep 28, 1988 12:00:00 AM",
    "gender": "Мужской",
    "profession": "Грузчик",
    "categoryRate": "Сдельная",
    "rate": 500,
    "dateStartOfWork": "Apr 1, 2018 12:00:00 AM",
    "address": "160899, г. Дербент, ул. Академическая, дом 19, квартира 127"
  },
  {
    "id": 2,
    "fullName": "Назарова Нона Юрьевна ",
    "dateBirth": "Jul 5, 1981 12:00:00 AM",
    "gender": "Женский",
    "profession": "Продавец-консультант",
    "categoryRate": "Почасовая",
    "rate": 120,
    "dateStartOfWork": "Mar 7, 2018 12:00:00 AM",
    "address": "457145, г. Одесское, ул. Авиаконструктора Микояна, дом 84, квартира 101"
  },
  {
    "id": 3,
    "fullName": "Карпова Генриетта Богдановна ",
    "dateBirth": "May 29, 1997 12:00:00 AM",
    "gender": "Женский",
    "profession": "Продавец-кассир",
    "categoryRate": "Почасовая",
    "rate": 120,
    "dateStartOfWork": "Apr 18, 2018 12:00:00 AM",
    "address": "152286, г. Хвастовичи, ул. Бакинская, дом 58, квартира 30"
  },
  {
    "id": 4,
    "fullName": "Маркова Людмила Александровна ",
    "dateBirth": "Nov 2, 1990 12:00:00 AM",
    "gender": "Мужской",
    "profession": "Администратор",
    "categoryRate": "Оклад",
    "rate": 40000,
    "dateStartOfWork": "Mar 24, 2018 12:00:00 AM",
    "address": "140026, г. Сасово, ул. Беговая 2-я, дом 42, квартира 255"
  },
  {
    "id": 5,
    "fullName": "Макаров Фока Денисович",
    "dateBirth": "Dec 12, 1986 12:00:00 AM",
    "gender": "Мужской",
    "profession": "Управляющий",
    "categoryRate": "Оклад",
    "rate": 30000,
    "dateStartOfWork": "Feb 28, 2018 12:00:00 AM",
    "address": "391935, г. Нижние Серги, ул. Театральная, дом 77, квартира 133"
  },
  {
    "id": 6,
    "fullName": "Журавель Изольда Игоревна ",
    "dateBirth": "Jul 22, 1980 12:00:00 AM",
    "gender": "Мужской",
    "profession": "Бухгалтер",
    "categoryRate": "Оклад",
    "rate": 30000,
    "dateStartOfWork": "Mar 3, 2018 12:00:00 AM",
    "address": "660816, г. Олекминск, ул. Батайская, дом 83, квартира 259"
  },
  {
    "id": 7,
    "fullName": "Афанасьев Мстислав Валерьевич",
    "dateBirth": "Sep 16, 1981 12:00:00 AM",
    "gender": "Мужской",
    "profession": "Директор",
    "categoryRate": "Оклад",
    "rate": 70000,
    "dateStartOfWork": "Jan 20, 2017 12:00:00 AM",
    "address": "659047, г. Усть-Донецкий, ул. Достоевского, дом 12, квартира 194"
  },
  {
    "id": 8,
    "fullName": "Герасимов Стоян Павлович",
    "dateBirth": "Nov 20, 1985 12:00:00 AM",
    "gender": "Мужской",
    "profession": "Кладовщик",
    "categoryRate": "Оклад",
    "rate": 25000,
    "dateStartOfWork": "Jan 4, 2018 12:00:00 AM",
    "address": "403422, г. Антропово, ул. Бебеля, дом 93, квартира 147"
  },
  {
    "id": 9,
    "fullName": "Русин Всемил Дмитриевич",
    "dateBirth": "Jan 4, 1991 12:00:00 AM",
    "gender": "Мужской",
    "profession": "Уборщик",
    "categoryRate": "Сдельная",
    "rate": 300,
    "dateStartOfWork": "Apr 19, 2018 12:00:00 AM",
    "address": "632951, г. Малиновка, ул. Авиаконструктора Микояна, дом 39, квартира 280"
  },
  {
    "id": 10,
    "fullName": "Демьянова Элиза Матвеевна ",
    "dateBirth": "May 13, 1993 12:00:00 AM",
    "gender": "Женский",
    "profession": "Продавец-консультант",
    "categoryRate": "Почасовая",
    "rate": 120,
    "dateStartOfWork": "May 24, 2018 12:00:00 AM",
    "address": "433705, г. Янтарный, ул. Бакунина, дом 25, квартира 100"
  }
]