{
  "name": "ООО \"Орион\"",
  "inn": "123456",
  "ogrn": "12345",
  "ogrnip": "1234",
  "imns": "123",
  "code": "123",
  "pfr": "12",
  "fss": "1",
  "foms": "1234567",
  "typeTax": "Стандартная форма",
  "kpp": "12345678",
  "oktmo": "123456789",
  "okved": "1234567890",
  "okpo": "987654321",
  "okopf": "87654321",
  "leader": "Афанасьев Мстислав Валерьевич",
  "accountant": "Журавель Изольда Игоревна "
}